<svg width="23" height="23" viewBox="0 0 23 23" fill="none" xmlns="http://www.w3.org/2000/svg">
<path d="M10.6076 0.0239258L5.02526 0.0478904C4.30052 0.0478904 3.61771 0.449297 3.2763 1.07837L0.359375 6.35657L10.0505 6.3326L10.6076 0.0239258Z" fill="#364259"/>
<path d="M22.6346 6.30867L19.6817 1.03048C19.3224 0.401407 18.6575 0 17.9208 0L12.3325 0.0239646L12.9195 6.33264L22.6346 6.30867Z" fill="#364259"/>
<path d="M22.988 8.02209L12.3565 8.05804H10.6315L0 8.07602V21.0828C0 22.1432 0.8625 23 1.92266 23L10.7932 22.982L21.0773 23C22.1375 23 23 22.1432 23 21.0828L22.988 8.02209ZM20.125 19.4113C20.125 19.8067 19.8016 20.1302 19.4062 20.1302H13.1771C12.7818 20.1302 12.4583 19.8067 12.4583 19.4113V16.0562C12.4583 15.6608 12.7818 15.3373 13.1771 15.3373H19.4062C19.8016 15.3373 20.125 15.6608 20.125 16.0562V19.4113Z" fill="#364259"/>
</svg>
