<svg width="26" height="24" viewBox="0 0 26 24" fill="none" xmlns="http://www.w3.org/2000/svg">
<path d="M13.0002 5.39099L3.13619 14.4241C3.06307 14.4925 2.96963 14.5244 2.88929 14.5811V23.25C2.88929 23.4489 2.96537 23.6397 3.10082 23.7803C3.23626 23.921 3.41995 24 3.61149 24H9.38917C9.58071 24 9.76441 23.921 9.89985 23.7803C10.0353 23.6397 10.1114 23.4489 10.1114 23.25V17.2501C10.1114 17.0512 10.1875 16.8605 10.3229 16.7198C10.4583 16.5792 10.642 16.5001 10.8336 16.5001H15.1668C15.3584 16.5001 15.5421 16.5792 15.6775 16.7198C15.813 16.8605 15.889 17.0512 15.889 17.2501V23.25C15.889 23.4489 15.9651 23.6397 16.1006 23.7803C16.236 23.921 16.4197 24 16.6113 24H22.3889C22.5805 24 22.7642 23.921 22.8996 23.7803C23.035 23.6397 23.1111 23.4489 23.1111 23.25V14.583C23.0344 14.5286 22.9432 14.4977 22.8737 14.433L13.0002 5.39099ZM25.7603 11.0759L14.2077 0.482332C13.877 0.171886 13.4471 0 13.0013 0C12.5556 0 12.1257 0.171886 11.795 0.482332L0.239681 11.0759C0.169094 11.1417 0.111687 11.2213 0.0707393 11.3102C0.0297914 11.3991 0.0061049 11.4954 0.00103293 11.5938C-0.00403905 11.6922 0.0096029 11.7906 0.0411795 11.8835C0.072756 11.9764 0.121648 12.062 0.185064 12.1352L1.15147 13.2518C1.21485 13.3251 1.29152 13.3847 1.3771 13.4272C1.46268 13.4697 1.55548 13.4943 1.65021 13.4996C1.74495 13.5049 1.83975 13.4907 1.92921 13.4579C2.01867 13.4251 2.10103 13.3743 2.17159 13.3085L12.5227 3.8268C12.6546 3.70592 12.8245 3.63922 13.0004 3.63922C13.1764 3.63922 13.3463 3.70592 13.4782 3.8268L23.8293 13.308C23.8998 13.3739 23.9822 13.4246 24.0717 13.4574C24.1611 13.4902 24.2559 13.5044 24.3507 13.4991C24.4454 13.4939 24.5382 13.4693 24.6238 13.4267C24.7093 13.3842 24.786 13.3246 24.8494 13.2513L25.8154 12.1348C25.9432 11.9867 26.0093 11.792 25.9989 11.5935C25.9886 11.3949 25.9028 11.2087 25.7603 11.0759Z" fill="#364259"/>
</svg>
