<svg width="20" height="24" viewBox="0 0 20 24" fill="none" xmlns="http://www.w3.org/2000/svg">
<path fill-rule="evenodd" clip-rule="evenodd" d="M13.461 14.0229C12.424 14.6319 11.258 14.9999 10 14.9999C8.742 14.9999 7.576 14.6319 6.539 14.0229C2.894 14.2619 0 17.2959 0 20.9999V22.7299L0.695 22.9529C0.829 22.9949 4.038 23.9999 10 23.9999C15.962 23.9999 19.171 22.9949 19.305 22.9529L20 22.7299V20.9999C20 17.2959 17.106 14.2619 13.461 14.0229Z" fill="#272459"/>
<path fill-rule="evenodd" clip-rule="evenodd" d="M10 13C13.379 13 16 9.237 16 6C16 2.691 13.309 0 10 0C6.691 0 4 2.691 4 6C4 9.237 6.621 13 10 13Z" fill="#272459"/>
</svg>
