<svg width="31" height="30" viewBox="0 0 31 30" fill="none" xmlns="http://www.w3.org/2000/svg">
<mask id="mask0" mask-type="alpha" maskUnits="userSpaceOnUse" x="0" y="0" width="31" height="30">
<rect x="0.751221" width="29.3204" height="30" rx="2" fill="white"/>
</mask>
<g mask="url(#mask0)">
<rect x="0.751221" width="29.3204" height="30" rx="14.6602" fill="#EA403F"/>
<path fill-rule="evenodd" clip-rule="evenodd" d="M15.2784 17.6112L11.5854 20.2781L12.9479 15.89L9.30298 13.1594L13.8381 13.1169L15.2784 8.75L16.7186 13.1169L21.2538 13.1594L17.6088 15.89L18.9714 20.2781L15.2784 17.6112Z" fill="#FFFE4E"/>
</g>
</svg>
